\relax 
\providecommand\HyperFirstAtBeginDocument{\AtBeginDocument}
\HyperFirstAtBeginDocument{\ifx\hyper@anchor\@undefined
\global\let\oldcontentsline\contentsline
\gdef\contentsline#1#2#3#4{\oldcontentsline{#1}{#2}{#3}}
\global\let\oldnewlabel\newlabel
\gdef\newlabel#1#2{\newlabelxx{#1}#2}
\gdef\newlabelxx#1#2#3#4#5#6{\oldnewlabel{#1}{{#2}{#3}}}
\AtEndDocument{\ifx\hyper@anchor\@undefined
\let\contentsline\oldcontentsline
\let\newlabel\oldnewlabel
\fi}
\fi}
\global\let\hyper@last\relax 
\gdef\HyperFirstAtBeginDocument#1{#1}
\providecommand\HyField@AuxAddToFields[1]{}
\@writefile{toc}{\contentsline {chapter}{Contents}{i}{dummy.1}}
\@writefile{toc}{\contentsline {chapter}{Abstract}{ii}{dummy.3}}
\@writefile{toc}{\vspace  {1em}}
\@writefile{toc}{\contentsline {chapter}{\numberline {1}Introduction}{1}{chapter.4}}
\@writefile{lof}{\addvspace {10\p@ }}
\@writefile{lot}{\addvspace {10\p@ }}
\newlabel{Chapter1}{{1}{1}{Introduction\relax }{chapter.4}{}}
\@writefile{toc}{\contentsline {section}{\numberline {1.1}Introduction}{1}{section.5}}
\@writefile{toc}{\contentsline {section}{\numberline {1.2}Presentation of the company}{1}{section.6}}
\@writefile{toc}{\contentsline {chapter}{\numberline {2}Tasks and Assignments}{3}{chapter.7}}
\@writefile{lof}{\addvspace {10\p@ }}
\@writefile{lot}{\addvspace {10\p@ }}
\newlabel{Chapter2}{{2}{3}{Tasks and Assignments\relax }{chapter.7}{}}
\@writefile{toc}{\contentsline {section}{\numberline {2.1}Analysis of the existing}{3}{section.8}}
\@writefile{toc}{\contentsline {section}{\numberline {2.2}Choice of the solution}{4}{section.9}}
\@writefile{toc}{\contentsline {section}{\numberline {2.3}Realizing the solution}{5}{section.10}}
\@writefile{toc}{\contentsline {section}{\numberline {2.4}Other parallel tasks}{8}{section.42}}
\@writefile{toc}{\contentsline {chapter}{\numberline {3}Overall reflection on the practical placement}{9}{chapter.43}}
\@writefile{lof}{\addvspace {10\p@ }}
\@writefile{lot}{\addvspace {10\p@ }}
\newlabel{Chapter3}{{3}{9}{Overall reflection on the practical placement\relax }{chapter.43}{}}
\@writefile{toc}{\contentsline {section}{\numberline {3.1}Professional}{9}{section.44}}
\@writefile{toc}{\contentsline {section}{\numberline {3.2}Academic}{10}{section.45}}
\@writefile{toc}{\contentsline {section}{\numberline {3.3}Personal}{11}{section.46}}
\@writefile{toc}{\contentsline {chapter}{\numberline {4}Recommendations}{13}{chapter.47}}
\@writefile{lof}{\addvspace {10\p@ }}
\@writefile{lot}{\addvspace {10\p@ }}
\newlabel{Chapter4}{{4}{13}{Recommendations\relax }{chapter.47}{}}
\@writefile{toc}{\contentsline {section}{\numberline {4.1}Orange Business Services}{13}{section.48}}
\@writefile{toc}{\contentsline {section}{\numberline {4.2}VIA University College}{14}{section.49}}
\@writefile{toc}{\contentsline {chapter}{\numberline {5}Conclusion}{15}{chapter.50}}
\@writefile{lof}{\addvspace {10\p@ }}
\@writefile{lot}{\addvspace {10\p@ }}
\newlabel{Chapter5}{{5}{15}{Conclusion\relax }{chapter.50}{}}
\@writefile{toc}{\vspace  {2em}}
\@writefile{toc}{\contentsline {chapter}{\numberline {A}Analysis of Whatoo}{17}{appendix.51}}
\@writefile{lof}{\addvspace {10\p@ }}
\@writefile{lot}{\addvspace {10\p@ }}
\newlabel{analysis}{{A}{17}{Analysis of \appname \relax }{appendix.51}{}}
\@writefile{lof}{\contentsline {figure}{\numberline {A.1}{\ignorespaces Use case of Whatoo\relax }}{17}{figure.caption.52}}
\providecommand*\caption@xref[2]{\@setref\relax\@undefined{#1}}
\newlabel{use_case}{{A.1}{17}{Use case of \appname \relax \relax }{figure.caption.52}{}}
\@writefile{toc}{\contentsline {chapter}{\numberline {B}Architecture of Whatoo}{18}{appendix.53}}
\@writefile{lof}{\addvspace {10\p@ }}
\@writefile{lot}{\addvspace {10\p@ }}
\newlabel{archi}{{B}{18}{Architecture of \appname \relax }{appendix.53}{}}
\@writefile{lof}{\contentsline {figure}{\numberline {B.1}{\ignorespaces \textit  {New} architecture of Whatoo\relax }}{18}{figure.caption.54}}
\newlabel{architecture}{{B.1}{18}{\textit {New} architecture of \appname \relax \relax }{figure.caption.54}{}}
\@writefile{toc}{\vspace  {2em}}
